…
```r
count(sonar445, country) %>% mutate(ct = n) -> countries
```

Then, we join the country data to the metadata data frame:


```r
(left_join(base_df, countries) %>% tbl_df() -> vis_df)
```

```
## # A tibble: 249 x 6
##    iso31661a3         country                            alt_name oii_reg
##         <chr>           <chr>                               <chr>   <chr>
##  1        PRK     North Korea Korea, Democratic People's Republic    Asia
##  2        MDV        Maldives                            Maldives    Asia
##  3        BTN          Bhutan                              Bhutan    Asia
##  4        BRN          Brunei                   Brunei Darussalam    Asia
##  5        MAC           Macao                               Macau    Asia
##  6        TKM    Turkmenistan                        Turkmenistan    Asia
##  7        MNG        Mongolia                            Mongolia    Asia
##  8        MMR Myanmar [Burma]                             Myanmar    Asia
##  9        LAO            Laos    Lao People's Democratic Republic    Asia
## 10        KHM        Cambodia                            Cambodia    Asia
## # ... with 239 more rows, and 2 more variables: n <int>, ct <int>
```
…
